%YAML 1.1
%TAG !u! tag:unity3d.com,2011:
--- !u!114 &11400000
MonoBehaviour:
  m_ObjectHideFlags: 0
  m_CorrespondingSourceObject: {fileID: 0}
  m_PrefabInstance: {fileID: 0}
  m_PrefabAsset: {fileID: 0}
  m_GameObject: {fileID: 0}
  m_Enabled: 1
  m_EditorHideFlags: 0
  m_Script: {fileID: 11500000, guid: f31ae7738c8a4414597e097cac0f83c5, type: 3}
  m_Name: 4OrderDialog
  m_EditorClassIdentifier: 
  blocks:
  - question: "\u041F\u0438\u0448\u0435\u043C \u0412\u0430\u043C \u0438\u0437 \u0445\u0443\u2026"
    answers: []
  - question: "\u0418\u0437 \u041C\u0438\u043D\u0438\u0441\u0442\u0435\u0440\u0441\u0442\u0432\u0430
      \u041A\u0443\u043B\u044C\u0442\u0443\u0440\u044B, \u0434\u043E\u0440\u043E\u0433\u0438\u0435
      \u043C\u043E\u0438."
    answers: []
  - question: "\u041F\u0440\u043E\u0441\u0438\u043C \u0412\u0430\u0441 \u043D\u0430\u043F\u0438\u0441\u0430\u0442\u044C
      \u0441\u0442\u0430\u0442\u044C\u044E, \u043A\u043E\u0442\u043E\u0440\u0430\u044F
      \u043F\u043E\u0434\u043D\u0438\u043C\u0435\u0442 \u043A\u0443\u043B\u044C\u0442\u0443\u0440\u043D\u044B\u0439
      \u0443\u0440\u043E\u0432\u0435\u043D\u044C \u043D\u0430\u0448\u0435\u0439 \u0441\u0442\u0440\u0430\u043D\u044B."
    answers: []
  - question: "\u0427\u0442\u043E\u0431\u044B \u0431\u044B\u043B\u043E \u0441\u0442\u0438\u043B\u044C\u043D\u043E,
      \u043C\u043E\u0434\u043D\u043E, \u043C\u043E\u043B\u043E\u0434\u0435\u0436\u043D\u043E
      \u0438 \u043D\u0435\u0434\u043E\u0440\u043E\u0433\u043E."
    answers: []
  - question: "\u041F\u0440\u0435\u043C\u043D\u043E\u0433\u043E \u0431\u043B\u0430\u0433\u043E\u0434\u0430\u0440\u0441\u0442\u0432\u0443\u0435\u043C."
    answers:
    - "\u041D\u0443 \u043E\u043A"
