%YAML 1.1
%TAG !u! tag:unity3d.com,2011:
--- !u!114 &11400000
MonoBehaviour:
  m_ObjectHideFlags: 0
  m_CorrespondingSourceObject: {fileID: 0}
  m_PrefabInstance: {fileID: 0}
  m_PrefabAsset: {fileID: 0}
  m_GameObject: {fileID: 0}
  m_Enabled: 1
  m_EditorHideFlags: 0
  m_Script: {fileID: 11500000, guid: 02de8a8377d19714e8cd711f23404c77, type: 3}
  m_Name: 4Order
  m_EditorClassIdentifier: 
  person: {fileID: 11400000, guid: 85f650851b819584d9e72ef79fc0f7de, type: 2}
  dialog: {fileID: 11400000, guid: 5f12b4897a95bae4f961049c026296de, type: 2}
