%YAML 1.1
%TAG !u! tag:unity3d.com,2011:
--- !u!114 &11400000
MonoBehaviour:
  m_ObjectHideFlags: 0
  m_CorrespondingSourceObject: {fileID: 0}
  m_PrefabInstance: {fileID: 0}
  m_PrefabAsset: {fileID: 0}
  m_GameObject: {fileID: 0}
  m_Enabled: 1
  m_EditorHideFlags: 0
  m_Script: {fileID: 11500000, guid: e11a5251330017744a0900a33c20aac8, type: 3}
  m_Name: 2BadPost
  m_EditorClassIdentifier: 
  poster: {fileID: 11400000, guid: 6e4f270ab17f8b9458aec4a35f8ff45e, type: 2}
  text: "\u041B\u044E\u0434\u0438 \u0432\u044B\u0448\u043B\u0438 \u0441 \u043F\u0440\u043E\u0442\u0435\u0441\u0442\u0430\u043C\u0438
    \u043D\u0430 \u0443\u043B\u0438\u0446\u044B. \u041E\u043D\u0438 \u0442\u0440\u0435\u0431\u0443\u044E\u0442
    \u0441\u0440\u043E\u0447\u043D\u044B\u0445 \u043C\u0435\u0440 \u043E\u0442 \u043F\u0440\u0430\u0432\u0438\u0442\u0435\u043B\u044C\u0441\u0442\u0432\u0430
    \u0432 \u0441\u0432\u044F\u0437\u0438 \u0441 \u043E\u0442\u043A\u0440\u044B\u0442\u0438\u0435\u043C
    \u043D\u043E\u0432\u043E\u0439 \u0431\u043E\u043B\u0435\u0437\u043D\u0438. \u0420\u0430\u0437\u0432\u0438\u0442\u0438\u0435
    \u043C\u0435\u0434\u0438\u0446\u0438\u043D\u044B \u0438 \u043F\u043E\u0441\u0442\u0440\u043E\u0439\u043A\u0430
    \u043D\u043E\u0432\u044B\u0445 \u043F\u043E\u043B\u0438\u043A\u043B\u0438\u043D\u0438\u043A
    \u0441\u0442\u0430\u043D\u043E\u0432\u0438\u0442\u0441\u044F... "
  likes: 54
