%YAML 1.1
%TAG !u! tag:unity3d.com,2011:
--- !u!114 &11400000
MonoBehaviour:
  m_ObjectHideFlags: 0
  m_CorrespondingSourceObject: {fileID: 0}
  m_PrefabInstance: {fileID: 0}
  m_PrefabAsset: {fileID: 0}
  m_GameObject: {fileID: 0}
  m_Enabled: 1
  m_EditorHideFlags: 0
  m_Script: {fileID: 11500000, guid: cfecc4fcace3fb247b88c06e285d12a7, type: 3}
  m_Name: 3Topic
  m_EditorClassIdentifier: 
  title: "{1,1} \u0442\u0435\u0440\u0440\u043E\u0440\u0438\u0437\u0438\u0440\u0443\u044E\u0442
    {2,1}!"
  text: "\u0412 \u0440\u044F\u0434\u0435 \u0440\u0430\u0439\u043E\u043D\u043E\u0432
    {2,2} \u043E\u0442\u043C\u0435\u0447\u0435\u043D\u043E \u043D\u0435\u043E\u0431\u044B\u0447\u043D\u043E\u0435
    \u043F\u043E\u0432\u0435\u0434\u0435\u043D\u0438\u0435 \u043F\u0440\u0435\u0434\u0441\u0442\u0430\u0432\u0438\u0442\u0435\u043B\u0435\u0439
    \u043C\u0435\u0441\u0442\u043D\u043E\u0433\u043E \u043D\u0430\u0441\u0435\u043B\u0435\u043D\u0438\u044F.
    \u0410\u043D\u043E\u043C\u0430\u043B\u044C\u043D\u043E \u0432\u043E\u0437\u0440\u043E\u0441\u0448\u0435\u0435
    \u043F\u043E\u0442\u0440\u0435\u0431\u043B\u0435\u043D\u0438\u0435 {3,1} \u043F\u0440\u0438\u0432\u0435\u043B\u043E
    \u043A\u043E\u043C\u0438\u0441\u0441\u0438\u044E \u041C\u0438\u043D\u0442\u0440\u0430\u043D\u0441\u043F\u043E\u0440\u0442\u0430
    \u043A \u0448\u043E\u043A\u0438\u0440\u0443\u044E\u0449\u0438\u043C \u0432\u044B\u0432\u043E\u0434\u0430\u043C:
    \u0443\u0436\u0435 \u043D\u0430 \u043F\u0440\u043E\u0442\u044F\u0436\u0435\u043D\u0438\u0438
    30 \u043B\u0435\u0442 \u0441\u0438\u043B\u0430\u043C\u0438 {4,1} \u043E\u0441\u0443\u0449\u0435\u0441\u0442\u0432\u043B\u044F\u0435\u0442\u0441\u044F
    \u043F\u043E\u0434\u043C\u0435\u043D\u0430 \u043C\u0435\u0441\u0442\u043D\u044B\u0445
    {1,3} \u043D\u0430 \u0441\u043E\u0432\u0435\u0440\u0448\u0435\u043D\u043D\u043E
    \u0438\u0434\u0435\u043D\u0442\u0438\u0447\u043D\u044B\u0445 \u0438\u043C \u043F\u043E
    \u0444\u0443\u043D\u043A\u0446\u0438\u043E\u043D\u0430\u043B\u0443 {1,2}.\r\n\u041A\u0430\u043A
    \u0437\u0430\u044F\u0432\u0438\u043B \u043F\u0440\u0435\u0434\u0441\u0435\u0434\u0430\u0442\u0435\u043B\u044C
    \u0430\u0441\u0441\u043E\u0446\u0438\u0430\u0446\u0438\u0438 {1,2} \u0420\u0424,
    \u0446\u0438\u0442\u0438\u0440\u0443\u0435\u043C: \u201C{5,1}\u201D."
  insertions:
  - question: "\u0428\u0435\u0444, \u0437\u0434\u0440\u0430\u0432\u0441\u0442\u0432\u0443\u0439\u0442\u0435.\n\u041A\u0430\u043A\u0438\u043C\u0438
      \u0434\u043E\u0441\u0442\u0438\u0436\u0435\u043D\u0438\u044F\u043C\u0438 \u043C\u043E\u0436\u0435\u043C
      \u043F\u043E\u0445\u0432\u0430\u0441\u0442\u0430\u0442\u044C\u0441\u044F \u043F\u0435\u0440\u0435\u0434
      \u0437\u0430\u043F\u0430\u0434\u043E\u043C?"
    answers:
    - answer: "\u0410\u043D\u0434\u0440\u043E\u0438\u0434\u044B-\u043E\u043B\u0435\u043D\u0435\u0432\u043E\u0434\u044B "
      textBlock:
      - "\u0410\u043D\u0434\u0440\u043E\u0438\u0434\u044B-\u043E\u043B\u0435\u043D\u0435\u0432\u043E\u0434\u044B"
      - "\u0430\u043D\u0434\u0440\u043E\u0438\u0434\u043E\u0432"
      - "\u043E\u043B\u0435\u043D\u0435\u0432\u043E\u0434\u043E\u0432"
      likes: 130
    - answer: "\u041A\u0438\u0431\u043E\u0440\u0433\u0438-\u0433\u0430\u0441\u0442\u0430\u0440\u0431\u0430\u0439\u0442\u0435\u0440\u044B"
      textBlock:
      - "\u041A\u0438\u0431\u043E\u0440\u0433\u0438-\u0433\u0430\u0441\u0442\u0430\u0440\u0431\u0430\u0439\u0442\u0435\u0440\u044B"
      - "\u043A\u0438\u0431\u043E\u0440\u0433\u043E\u0432"
      - "\u0433\u0430\u0441\u0442\u0430\u0440\u0431\u0430\u0439\u0442\u0435\u0440\u043E\u0432"
      likes: 222
    - answer: "\u0414\u0440\u043E\u043D\u044B-\u0433\u043E\u043C\u043E\u0441\u0435\u043A\u0441\u0443\u0430\u043B\u0438\u0441\u0442\u044B"
      textBlock:
      - "\u0414\u0440\u043E\u043D\u044B-\u0433\u043E\u043C\u043E\u0441\u0435\u043A\u0441\u0443\u0430\u043B\u0438\u0441\u0442\u044B"
      - "\u0434\u0440\u043E\u043D\u043E\u0432"
      - "\u0433\u043E\u043C\u043E\u0441\u0435\u043A\u0441\u0443\u0430\u043B\u0438\u0441\u0442\u043E\u0432"
      likes: -207
    - answer: "\u0414\u0440\u043E\u0438\u0434\u044B-\u0438\u0445\u0442\u0438\u0430\u043D\u0434\u0440\u044B"
      textBlock:
      - "\u0414\u0440\u043E\u0438\u0434\u044B-\u0438\u0445\u0442\u0438\u0430\u043D\u0434\u0440\u044B"
      - "\u0434\u0440\u043E\u0438\u0434\u043E\u0432"
      - "\u0438\u0445\u0442\u0438\u0430\u043D\u0434\u0440\u043E\u0432"
      likes: 56
  - question: "\u041E\u0413\u041E! \u0422\u0430\u043A\u043E\u0435 \u0441\u0443\u0449\u0435\u0441\u0442\u0432\u0443\u0435\u0442?..\n\u042F
      \u043D\u0435 \u0437\u043D\u0430\u043B.\n\u0410 \u0433\u0434\u0435 \u044D\u0442\u043E
      \u0447\u0443\u0434\u043E \u0441\u0434\u0435\u043B\u0430\u043B\u0438?"
    answers:
    - answer: "\u0427\u0443\u043A\u043E\u0442\u043A\u0430 "
      textBlock:
      - "\u0427\u0443\u043A\u043E\u0442\u043A\u0443"
      - "\u0427\u0443\u043A\u043E\u0442\u043A\u0438"
      likes: 67
    - answer: "\u0413\u0438\u043F\u0435\u0440\u0431\u043E\u0440\u0435\u044F"
      textBlock:
      - "\u0413\u0438\u043F\u0435\u0440\u0431\u043E\u0440\u0435\u044E"
      - "\u0413\u0438\u043F\u0435\u0440\u0431\u043E\u0440\u0435\u0438"
      likes: 301
    - answer: "\u041C\u0430\u0440\u0438\u0430\u043D\u0441\u043A\u0430\u044F \u0432\u043F\u0430\u0434\u0438\u043D\u0430"
      textBlock:
      - "\u041C\u0430\u0440\u0438\u0430\u043D\u0441\u043A\u0443\u044E \u0432\u043F\u0430\u0434\u0438\u043D\u0443"
      - "\u041C\u0430\u0440\u0438\u0430\u043D\u0441\u043A\u043E\u0439 \u0432\u043F\u0430\u0434\u0438\u043D\u044B"
      likes: -187
    - answer: "\u041C\u0430\u043B\u044B\u0435 \u041F\u0438\u0441\u044E\u043A\u0438"
      textBlock:
      - "\u041C\u0430\u043B\u044B\u0435 \u041F\u0438\u0441\u044E\u043A\u0438"
      - "\u041C\u0430\u043B\u044B\u0445 \u041F\u0438\u0441\u044E\u043A\u043E\u0432"
      likes: 145
  - question: "\u041A\u0430\u043A\u0430\u044F \u0431\u043E\u043B\u044C\u0448\u0430\u044F
      \u0443 \u043D\u0430\u0441 \u0441\u0442\u0440\u0430\u043D\u0430!\n\u0410 \u043D\u0430
      \u0447\u0435\u043C \u0440\u0430\u0431\u043E\u0442\u0430\u0435\u0442 \u044D\u0442\u043E
      \u0447\u0443\u0434\u043E \u0442\u0435\u0445\u043D\u0438\u043A\u0438?"
    answers:
    - answer: "\u0410\u0432\u0438\u0430\u0446\u0438\u043E\u043D\u043D\u044B\u0439
        \u043A\u0435\u0440\u043E\u0441\u0438\u043D"
      textBlock:
      - "\u0430\u0432\u0438\u0430\u0446\u0438\u043E\u043D\u043D\u043E\u0433\u043E
        \u043A\u0435\u0440\u043E\u0441\u0438\u043D\u0430"
      likes: 142
    - answer: "\u041D\u0430\u0441\u0442\u043E\u0439\u043A\u0430 \u0431\u043E\u044F\u0440\u044B\u0448\u043D\u0438\u043A\u0430"
      textBlock:
      - "\u043D\u0430\u0441\u0442\u043E\u0439\u043A\u0438 \u0431\u043E\u044F\u0440\u044B\u0448\u043D\u0438\u043A\u0430"
      likes: 56
    - answer: "\u0421\u0432\u044F\u0442\u0430\u044F \u0432\u043E\u0434\u0430"
      textBlock:
      - "\u0421\u0432\u044F\u0442\u043E\u0439 \u0432\u043E\u0434\u044B"
      likes: -156
    - answer: "\u042D\u043A\u0442\u043E\u043F\u043B\u0430\u0437\u043C\u0430"
      textBlock:
      - "\u042D\u043A\u0442\u043E\u043F\u043B\u0430\u0437\u043C\u044B"
      likes: 276
  - question: "\u0418\u043D\u0442\u0435\u0440\u0435\u0441\u043D\u0430\u044F \u0441\u0442\u0430\u0442\u044C\u044F
      \u0432\u044B\u0445\u043E\u0434\u0438\u0442! \u041D\u043E \u043C\u0430\u043B\u043E\u0432\u0430\u0442\u0430,
      \u0428\u0435\u0444.\n\u0427\u0442\u043E \u0435\u0449\u0435 \u043B\u0443\u0447\u0448\u0435
      \u0443\u043F\u043E\u043C\u044F\u043D\u0443\u0442\u044C \u0432 \u0441\u0442\u0430\u0442\u044C\u0435?"
    answers:
    - answer: "\u0426\u0420\u0423"
      textBlock:
      - "\u0426\u0420\u0423"
      likes: 192
    - answer: "\u0417\u0438\u043C\u0431\u0430\u0431\u0432\u0438\u0439\u0441\u043A\u0438\u0439
        \u0421\u043F\u0435\u0446\u043D\u0430\u0437"
      textBlock:
      - "\u0417\u0438\u043C\u0431\u0430\u0431\u0432\u0438\u0439\u0441\u043A\u043E\u0433\u043E
        \u0441\u043F\u0435\u0446\u043D\u0430\u0437\u0430"
      likes: 34
    - answer: "\u041F\u0440\u0438\u0448\u0435\u043B\u044C\u0446\u0435\u0432 \u0441
        \u041D\u0438\u0431\u0438\u0440\u0443"
      textBlock:
      - "\u043F\u0440\u0438\u0448\u0435\u043B\u044C\u0446\u0435\u0432 \u0441 \u041D\u0438\u0431\u0438\u0440\u0443"
      likes: -157
    - answer: "\u041C\u0430\u0441\u043E\u043D\u043E\u0432"
      textBlock:
      - "\u043C\u0430\u0441\u043E\u043D\u043E\u0432"
      likes: -45
  - question: "\u0415\u0441\u0442\u044C \u0435\u0449\u0451 \u043A\u0430\u043A\u0438\u0435-\u0442\u043E
      \u0434\u043E\u043F\u043E\u043B\u043D\u0435\u043D\u0438\u044F \u043A \u0441\u0442\u0430\u0442\u044C\u0435?"
    answers:
    - answer: Error 404
      textBlock:
      - Error 404
      likes: -45
    - answer: "\u0410\u0439 \u043B \u0431\u0438 \u0431\u0435\u043A"
      textBlock:
      - "\u0410\u0439 \u043B \u0431\u0438 \u0431\u0435\u043A"
      likes: 325
    - answer: 10001011
      textBlock:
      - 10001011
      likes: 114
    - answer: "\u041F\u043E\u0446\u0435\u043B\u0443\u0439 \u043C\u043E\u0439 \u0431\u043B\u0435\u0441\u0442\u044F\u0449\u0438\u0439
        \u043C\u0435\u0442\u0430\u043B\u043B\u0438\u0447\u0435\u0441\u043A\u0438\u0439
        \u0437\u0430\u0434!"
      textBlock:
      - "\u041F\u043E\u0446\u0435\u043B\u0443\u0439 \u043C\u043E\u0439 \u0431\u043B\u0435\u0441\u0442\u044F\u0449\u0438\u0439
        \u043C\u0435\u0442\u0430\u043B\u043B\u0438\u0447\u0435\u0441\u043A\u0438\u0439
        \u0437\u0430\u0434!"
      likes: -134
  - question: "\u041F\u0440\u0438\u0441\u0442\u0443\u043F\u0430\u044E \u043A \u0440\u0430\u0431\u043E\u0442\u0435.\n\u0421\u0442\u0430\u0442\u044C\u044F
      \u0432\u044B\u0439\u0434\u0435\u0442 \u043E\u0433\u043E\u043D\u044C! ))"
    answers: []
  cover:
    _layers:
    - variantDependent: 0
      sprite: {fileID: 21300000, guid: 7060d3fb12b90b940b05acd73bab11f3, type: 3}
      insertIdx: 0
      variants: []
    - variantDependent: 1
      sprite: {fileID: 0}
      insertIdx: 2
      variants:
      - {fileID: 21300000, guid: 05e5605e1cb6aa94c9364bb95ed08deb, type: 3}
      - {fileID: 21300000, guid: 9977790003fcbbc4ea201aeecf0bdb04, type: 3}
      - {fileID: 21300000, guid: 0ad7bc2f269260645ac06601fb3ff39f, type: 3}
      - {fileID: 21300000, guid: 084cea8ef709bbf4a9986f8a83b5ecb3, type: 3}
    - variantDependent: 1
      sprite: {fileID: 0}
      insertIdx: 1
      variants:
      - {fileID: 21300000, guid: 6b99ef481e1a51e49a309f37443aca33, type: 3}
      - {fileID: 21300000, guid: 4c428a51de37c704bbeb5f840752d34b, type: 3}
      - {fileID: 21300000, guid: 6194f3231f6db03418dac5bdb107668a, type: 3}
      - {fileID: 21300000, guid: aaefd2806896c7543ac18360767c07bc, type: 3}
    - variantDependent: 1
      sprite: {fileID: 0}
      insertIdx: 3
      variants:
      - {fileID: 21300000, guid: 468f9f652b2985f4ab7ed227255f4140, type: 3}
      - {fileID: 21300000, guid: 6397a39a56c4d4c4795961e91530519d, type: 3}
      - {fileID: 21300000, guid: bc9076b192fd6f143aeb7bca91e0a130, type: 3}
      - {fileID: 21300000, guid: 770e04dc79668c642ad34feff09f0948, type: 3}
