%YAML 1.1
%TAG !u! tag:unity3d.com,2011:
--- !u!114 &11400000
MonoBehaviour:
  m_ObjectHideFlags: 0
  m_CorrespondingSourceObject: {fileID: 0}
  m_PrefabInstance: {fileID: 0}
  m_PrefabAsset: {fileID: 0}
  m_GameObject: {fileID: 0}
  m_Enabled: 1
  m_EditorHideFlags: 0
  m_Script: {fileID: 11500000, guid: e11a5251330017744a0900a33c20aac8, type: 3}
  m_Name: LosePost
  m_EditorClassIdentifier: 
  poster: {fileID: 11400000, guid: 273600f78ca64fd419b6b21303176237, type: 2}
  text: "\u0414\u0440\u0443\u0437\u044C\u044F! \u0421 \u0441\u043E\u0436\u0430\u043B\u0435\u043D\u0438\u0435\u043C
    \u0432\u044B\u043D\u0443\u0436\u0434\u0435\u043D\u044B \u0441\u043E\u043E\u0431\u0449\u0438\u0442\u044C
    \u0432\u0430\u043C \u0447\u0442\u043E \u043D\u0430\u0448\u0430 \u043F\u043E\u0441\u043B\u0435\u0434\u043D\u044F\u044F
    \u043D\u0430\u0434\u0435\u0436\u0430 \u043D\u0435 \u043E\u043F\u0440\u0430\u0432\u0434\u0430\u043B\u0430\u0441\u044C.
    \u0421\u0447\u0435\u0442\u0447\u0438\u043A \u043F\u043E\u0434\u043F\u0438\u0441\u043E\u043A
    \u0443\u043F\u0430\u043B \u0434\u043E \u043D\u0443\u043B\u044F \u0438 \u043C\u044B
    \u0437\u0430\u043A\u0440\u044B\u0432\u0430\u0435\u043C\u0441\u044F.\n\u041D\u0443
    \u0447\u0442\u043E\u0436, \u043C\u043E\u0436\u0435\u0442 \u043F\u043E\u0437\u0436\u0435
    \u043F\u043E\u043F\u044B\u0442\u0430\u0435\u043C\u0441\u044F \u0435\u0449\u0451
    \u0440\u0430\u0437\u043E\u043A..."
  likes: -1
