%YAML 1.1
%TAG !u! tag:unity3d.com,2011:
--- !u!114 &11400000
MonoBehaviour:
  m_ObjectHideFlags: 0
  m_CorrespondingSourceObject: {fileID: 0}
  m_PrefabInstance: {fileID: 0}
  m_PrefabAsset: {fileID: 0}
  m_GameObject: {fileID: 0}
  m_Enabled: 1
  m_EditorHideFlags: 0
  m_Script: {fileID: 11500000, guid: 0fe109c9a04bca7418558820253be986, type: 3}
  m_Name: Quest1
  m_EditorClassIdentifier: 
  order: {fileID: 11400000, guid: ff4a517514d4fe24cab7f88d637f83af, type: 2}
  interview: {fileID: 0}
  topic: {fileID: 11400000, guid: c865e17d82a0ba84f9f84f2725c7fb17, type: 2}
  goodReactionMinLikes: 762
  goodReaction: {fileID: 11400000, guid: de311618da2b41e46bab2ade3aaa4af6, type: 2}
  badReaction: {fileID: 11400000, guid: bcee86872ca146c41b3db940a2b0b335, type: 2}
