%YAML 1.1
%TAG !u! tag:unity3d.com,2011:
--- !u!114 &11400000
MonoBehaviour:
  m_ObjectHideFlags: 0
  m_CorrespondingSourceObject: {fileID: 0}
  m_PrefabInstance: {fileID: 0}
  m_PrefabAsset: {fileID: 0}
  m_GameObject: {fileID: 0}
  m_Enabled: 1
  m_EditorHideFlags: 0
  m_Script: {fileID: 11500000, guid: e11a5251330017744a0900a33c20aac8, type: 3}
  m_Name: WinPost
  m_EditorClassIdentifier: 
  poster: {fileID: 11400000, guid: 273600f78ca64fd419b6b21303176237, type: 2}
  text: "\u0414\u0440\u0443\u0437\u044C\u044F! \u0411\u043B\u0430\u0433\u043E\u0434\u0430\u0440\u044F
    \u0432\u0430\u0448\u0435\u0439 \u043F\u043E\u0434\u0434\u0435\u0440\u0436\u043A\u0435
    \u0438 \u0435\u0451 \u0432\u044B\u0440\u0430\u0436\u0435\u043D\u0438\u044E -
    \u043B\u0430\u0439\u043A\u0430\u043C - \u043C\u044B \u043F\u0440\u0435\u043E\u0434\u043E\u043B\u0435\u043B\u0438
    \u043A\u0440\u0438\u0437\u0438\u0441 \u043D\u0435\u043F\u043E\u043F\u0443\u043B\u044F\u0440\u043D\u043E\u0441\u0442\u0438
    \u0438 \u043D\u0430\u0431\u0440\u0430\u043B\u0438  \u0414\u0415\u0421\u042F\u0422\u042C
    \u041C\u0418\u041B\u041B\u0418\u041E\u041D\u041E\u0412 \u043F\u043E\u0434\u043F\u0438\u0441\u0447\u0438\u043A\u043E\u0432.
    \u041E\u0441\u0442\u0430\u0432\u0430\u0439\u0442\u0435\u0441\u044C \u043D\u0430
    \u0441\u0432\u044F\u0437\u0438, \u0430 \u043C\u044B \u043F\u0440\u043E\u0434\u043E\u043B\u0436\u0438\u043C
    \u043E\u0442\u0431\u0438\u0440\u0430\u0442\u044C \u0434\u043B\u044F \u0432\u0430\u0441
    \u0441\u0430\u043C\u044B\u0435 \u0434\u043E\u0441\u0442\u043E\u0432\u0435\u0440\u043D\u044B\u0435
    \u0438 \u0430\u043A\u0442\u0443\u0430\u043B\u044C\u043D\u044B\u0435 \u043D\u043E\u0432\u043E\u0441\u0442\u0438!"
  likes: 870
