%YAML 1.1
%TAG !u! tag:unity3d.com,2011:
--- !u!114 &11400000
MonoBehaviour:
  m_ObjectHideFlags: 0
  m_CorrespondingSourceObject: {fileID: 0}
  m_PrefabInstance: {fileID: 0}
  m_PrefabAsset: {fileID: 0}
  m_GameObject: {fileID: 0}
  m_Enabled: 1
  m_EditorHideFlags: 0
  m_Script: {fileID: 11500000, guid: d0b731ced08aef94fa08c723aad0d895, type: 3}
  m_Name: medin
  m_EditorClassIdentifier: 
  avatar: {fileID: 21300000, guid: d7d4a14a6b563ee428725de239fcdbcd, type: 3}
  nickname: "\u041C\u0435\u0434\u0438\u043D \u0412\u043B\u0430\u0434\u0438\u043C\u0438\u0440\u0441\u043A\u0438\u0439"
