%YAML 1.1
%TAG !u! tag:unity3d.com,2011:
--- !u!114 &11400000
MonoBehaviour:
  m_ObjectHideFlags: 0
  m_CorrespondingSourceObject: {fileID: 0}
  m_PrefabInstance: {fileID: 0}
  m_PrefabAsset: {fileID: 0}
  m_GameObject: {fileID: 0}
  m_Enabled: 1
  m_EditorHideFlags: 0
  m_Script: {fileID: 11500000, guid: d0b731ced08aef94fa08c723aad0d895, type: 3}
  m_Name: nanoberg
  m_EditorClassIdentifier: 
  avatar: {fileID: 21300000, guid: 5373947fed71f42408ee9e16897b6221, type: 3}
  nickname: "\u0418\u0441\u0430\u0430\u043A \u041D\u0430\u043D\u043E\u0431\u0435\u0440\u0433"
