%YAML 1.1
%TAG !u! tag:unity3d.com,2011:
--- !u!114 &11400000
MonoBehaviour:
  m_ObjectHideFlags: 0
  m_CorrespondingSourceObject: {fileID: 0}
  m_PrefabInstance: {fileID: 0}
  m_PrefabAsset: {fileID: 0}
  m_GameObject: {fileID: 0}
  m_Enabled: 1
  m_EditorHideFlags: 0
  m_Script: {fileID: 11500000, guid: d0b731ced08aef94fa08c723aad0d895, type: 3}
  m_Name: prnoHub
  m_EditorClassIdentifier: 
  avatar: {fileID: 21300000, guid: 543d981602bc2e7478747a8fb40f3357, type: 3}
  nickname: Prno Hub
