%YAML 1.1
%TAG !u! tag:unity3d.com,2011:
--- !u!114 &11400000
MonoBehaviour:
  m_ObjectHideFlags: 0
  m_CorrespondingSourceObject: {fileID: 0}
  m_PrefabInstance: {fileID: 0}
  m_PrefabAsset: {fileID: 0}
  m_GameObject: {fileID: 0}
  m_Enabled: 1
  m_EditorHideFlags: 0
  m_Script: {fileID: 11500000, guid: 02de8a8377d19714e8cd711f23404c77, type: 3}
  m_Name: 6Order
  m_EditorClassIdentifier: 
  person: {fileID: 11400000, guid: 7169e88fe2066df42809b40973bc211e, type: 2}
  dialog: {fileID: 11400000, guid: e1b26494af5b28a4ca3640128bc9e321, type: 2}
